<?xml version="1.0" encoding="UTF-8" standalone="no"?>
<!-- Created in code by ervion -->

<svg
   xmlns:dc="http://purl.org/dc/elements/1.1/"
   xmlns:cc="http://creativecommons.org/ns#"
   xmlns:rdf="http://www.w3.org/1999/02/22-rdf-syntax-ns#"
   xmlns:svg="http://www.w3.org/2000/svg"
   xmlns="http://www.w3.org/2000/svg"
   xmlns:xlink="http://www.w3.org/1999/xlink"
   xmlns:sodipodi="http://sodipodi.sourceforge.net/DTD/sodipodi-0.dtd"
   xmlns:inkscape="http://www.inkscape.org/namespaces/inkscape"
   width="1052.3622"
   height="744.09448"
   id="svg3771"
   version="1.1"
   inkscape:version="0.48.4 r9939"
   sodipodi:docname="WereIn.svg">
  <defs
     id="defs3773">
    <linearGradient
       id="linearGradient3108">
      <stop
         style="stop-color:#00ff00;stop-opacity:1;"
         offset="0"
         id="stop3110" />
      <stop
         id="stop3116"
         offset="0.5"
         style="stop-color:#ffffff;stop-opacity:1;" />
      <stop
         style="stop-color:#00ff00;stop-opacity:1;"
         offset="1"
         id="stop3112" />
    </linearGradient>
    <linearGradient
       id="linearGradient4153">
      <stop
         style="stop-color:#ffffff;stop-opacity:0;"
         offset="0"
         id="stop4155" />
      <stop
         id="stop4161"
         offset="0.5"
         style="stop-color:#ffffff;stop-opacity:1;" />
      <stop
         style="stop-color:#ffffff;stop-opacity:0;"
         offset="1"
         id="stop4157" />
    </linearGradient>
    <linearGradient
       id="linearGradient3070">
      <stop
         id="stop3080"
         offset="0"
         style="stop-color:#9edfee;stop-opacity:0.74901962;" />
      <stop
         id="stop3078"
         offset="1"
         style="stop-color:#ffffff;stop-opacity:0.49803922;" />
    </linearGradient>
    <linearGradient
       inkscape:collect="always"
       xlink:href="#linearGradient3108"
       id="linearGradient3114"
       x1="60"
       y1="648.36218"
       x2="178"
       y2="649.36218"
       gradientUnits="userSpaceOnUse">
      <animate
         attributeName="x1"
         attributeType="XML"
         begin="0s"
         dur="2s"
         fill="freeze"
         from="20"
         to="911.5"
         repeatCount="indefinite"
         id="animate19" />
      <animate
         attributeName="x2"
         attributeType="XML"
         begin="0s"
         dur="2s"
         fill="freeze"
         from="178"
         to="1061.5"
         repeatCount="indefinite"
         id="animate21" />
    </linearGradient>
  </defs>
  <sodipodi:namedview
     id="base"
     pagecolor="#ffffff"
     bordercolor="#666666"
     borderopacity="1.0"
     inkscape:pageopacity="0.0"
     inkscape:pageshadow="2"
     inkscape:zoom="0.5"
     inkscape:cx="432.59493"
     inkscape:cy="362.68502"
     inkscape:document-units="px"
     inkscape:current-layer="layer2"
     showgrid="false"
     inkscape:window-width="1366"
     inkscape:window-height="705"
     inkscape:window-x="-8"
     inkscape:window-y="-8"
     inkscape:window-maximized="1" />
  <metadata
     id="metadata3776">
    <rdf:RDF>
      <cc:Work
         rdf:about="">
        <dc:format>image/svg+xml</dc:format>
        <dc:type
           rdf:resource="http://purl.org/dc/dcmitype/StillImage" />
        <dc:title />
      </cc:Work>
    </rdf:RDF>
  </metadata>
  <g
     inkscape:groupmode="layer"
     id="layer2"
     inkscape:label="bck"
     style="display:inline">
    <rect
       style="fill:#ffffff;fill-opacity:0.49803922;stroke:none"
       id="rect3058"
       width="1054.2858"
       height="748.57141"
       x="2.7996893"
       y="-1.6198493" />
  </g>
  <g
     inkscape:groupmode="layer"
     id="layer3"
     inkscape:label="clock">

    <text
       xml:space="preserve"
       style="font-size:48px;font-style:normal;font-weight:normal;line-height:125%;letter-spacing:0px;word-spacing:0px;fill:#000000;fill-opacity:1;stroke:none;font-family:Sans"
       x="706"
       y="447.79639"
       id="text4139"
       sodipodi:linespacing="125%"><tspan
         sodipodi:role="line"
         id="tspan4141"
         x="706"
         y="447.79639">h</tspan></text>
    <text
       xml:space="preserve"
       style="font-size:48px;font-style:normal;font-weight:normal;line-height:125%;letter-spacing:0px;word-spacing:0px;fill:#000000;fill-opacity:1;stroke:none;font-family:Sans"
       x="810.41418"
       y="445.38739"
       id="text4143"
       sodipodi:linespacing="125%"><tspan
         sodipodi:role="line"
         id="tspan4145"
         x="810.41418"
         y="445.38739">min</tspan></text>
    <text
       xml:space="preserve"
       style="font-size:48px;font-style:normal;font-weight:normal;line-height:125%;letter-spacing:0px;word-spacing:0px;fill:#000000;fill-opacity:1;stroke:none;font-family:Sans"
       x="958.82324"
       y="450.74615"
       id="text4147"
       sodipodi:linespacing="125%"><tspan
         sodipodi:role="line"
         id="tspan4149"
         x="958.82324"
         y="450.74615">s</tspan></text>
		 
		 
		 

   
   
   
    <text
       sodipodi:linespacing="125%"
       xml:space="preserve"
       style="font-size:48px;font-style:normal;font-weight:normal;line-height:125%;letter-spacing:0px;word-spacing:0px;fill:#000000;fill-opacity:1;stroke:none;font-family:Sans;opacity:0;"
       x="652.2132"
       y="454.91547"
       class="h1">0     <animate
   attributeType="CSS"
   attributeName="opacity"
   calcMode="discrete"
   values="1;0;0"
   keyTimes="0;0.1;1"
   dur="360000s"
   begin="0s"
   repeatCount="indefinite"
   class="animate29-45" /></text>   
    <text
       sodipodi:linespacing="125%"
       xml:space="preserve"
       style="font-size:48px;font-style:normal;font-weight:normal;line-height:125%;letter-spacing:0px;word-spacing:0px;fill:#000000;fill-opacity:1;stroke:none;font-family:Sans;opacity:0;"
       x="652.2132"
       y="454.91547"
       class="h1">1     <animate
   attributeType="CSS"
   attributeName="opacity"
   calcMode="discrete"
   values="1;0;0"
   keyTimes="0;0.1;1"
   dur="360000s"
   begin="0"
   repeatCount="indefinite"
   class="animate29-45" /></text>   
    <text
       sodipodi:linespacing="125%"
       xml:space="preserve"
       style="font-size:48px;font-style:normal;font-weight:normal;line-height:125%;letter-spacing:0px;word-spacing:0px;fill:#000000;fill-opacity:1;stroke:none;font-family:Sans;opacity:0;"
       x="652.2132"
       y="454.91547"
       class="h1">2     <animate
   attributeType="CSS"
   attributeName="opacity"
   calcMode="discrete"
   values="1;0;0"
   keyTimes="0;0.1;1"
   dur="360000s"
   begin="infinity"
   repeatCount="indefinite"
   class="animate29-45" /></text>  
   
   
   
   
   
   
   
   
   
   
   
   
		 
		 
		 
		 
		 
		 

   
   
   
   
   
    <text
       sodipodi:linespacing="125%"
       xml:space="preserve"
       style="font-size:48px;font-style:normal;font-weight:normal;line-height:125%;letter-spacing:0px;word-spacing:0px;fill:#000000;fill-opacity:1;stroke:none;font-family:Sans;opacity:0;"
       x="678.31244"
       y="451.34442"
       class="h2">0     <animate
   attributeType="CSS"
   attributeName="opacity"
   calcMode="discrete"
   values="1;0;0"
   keyTimes="0;0.1;1"
   dur="36000s"
   begin="0s"
   repeatCount="indefinite"
   class="animate29-45" /></text>   
    <text
       sodipodi:linespacing="125%"
       xml:space="preserve"
       style="font-size:48px;font-style:normal;font-weight:normal;line-height:125%;letter-spacing:0px;word-spacing:0px;fill:#000000;fill-opacity:1;stroke:none;font-family:Sans;opacity:0;"
       x="678.31244"
       y="451.34442"
       class="h2">1     <animate
   attributeType="CSS"
   attributeName="opacity"
   calcMode="discrete"
   values="1;0;0"
   keyTimes="0;0.1;1"
   dur="36000s"
   begin="3600s"
   repeatCount="indefinite"
   class="animate29-45" /></text>   
    <text
       sodipodi:linespacing="125%"
       xml:space="preserve"
       style="font-size:48px;font-style:normal;font-weight:normal;line-height:125%;letter-spacing:0px;word-spacing:0px;fill:#000000;fill-opacity:1;stroke:none;font-family:Sans;opacity:0;"
       x="678.31244"
       y="451.34442"
       class="h2">2     <animate
   attributeType="CSS"
   attributeName="opacity"
   calcMode="discrete"
   values="1;0;0"
   keyTimes="0;0.1;1"
   dur="36000s"
   begin="7200s"
   repeatCount="indefinite"
   class="animate29-45" /></text>   
    <text
       sodipodi:linespacing="125%"
       xml:space="preserve"
       style="font-size:48px;font-style:normal;font-weight:normal;line-height:125%;letter-spacing:0px;word-spacing:0px;fill:#000000;fill-opacity:1;stroke:none;font-family:Sans;opacity:0;"
       x="678.31244"
       y="451.34442"
       class="h2">3     <animate
   attributeType="CSS"
   attributeName="opacity"
   calcMode="discrete"
   values="1;0;0"
   keyTimes="0;0.1;1"
   dur="36000s"
   begin="10800s"
   repeatCount="indefinite"
   class="animate29-45" /></text>   
    <text
       sodipodi:linespacing="125%"
       xml:space="preserve"
       style="font-size:48px;font-style:normal;font-weight:normal;line-height:125%;letter-spacing:0px;word-spacing:0px;fill:#000000;fill-opacity:1;stroke:none;font-family:Sans;opacity:0;"
       x="678.31244"
       y="451.34442"
       class="h2">4     <animate
   attributeType="CSS"
   attributeName="opacity"
   calcMode="discrete"
   values="1;0;0"
   keyTimes="0;0.1;1"
   dur="36000s"
   begin="14400s"
   repeatCount="indefinite"
   class="animate29-45" /></text>   
    <text
       sodipodi:linespacing="125%"
       xml:space="preserve"
       style="font-size:48px;font-style:normal;font-weight:normal;line-height:125%;letter-spacing:0px;word-spacing:0px;fill:#000000;fill-opacity:1;stroke:none;font-family:Sans;opacity:0;"
       x="678.31244"
       y="451.34442"
       class="h2">5     <animate
   attributeType="CSS"
   attributeName="opacity"
   calcMode="discrete"
   values="1;0;0"
   keyTimes="0;0.1;1"
   dur="36000s"
   begin="18000s"
   repeatCount="indefinite"
   class="animate29-45" /></text>   
    <text
       sodipodi:linespacing="125%"
       xml:space="preserve"
       style="font-size:48px;font-style:normal;font-weight:normal;line-height:125%;letter-spacing:0px;word-spacing:0px;fill:#000000;fill-opacity:1;stroke:none;font-family:Sans;opacity:0;"
       x="678.31244"
       y="451.34442"
       class="h2">6     <animate
   attributeType="CSS"
   attributeName="opacity"
   calcMode="discrete"
   values="1;0;0"
   keyTimes="0;0.1;1"
   dur="36000s"
   begin="21600s"
   repeatCount="indefinite"
   class="animate29-45" /></text>   
    <text
       sodipodi:linespacing="125%"
       xml:space="preserve"
       style="font-size:48px;font-style:normal;font-weight:normal;line-height:125%;letter-spacing:0px;word-spacing:0px;fill:#000000;fill-opacity:1;stroke:none;font-family:Sans;opacity:0;"
       x="678.31244"
       y="451.34442"
       class="h2">7     <animate
   attributeType="CSS"
   attributeName="opacity"
   calcMode="discrete"
   values="1;0;0"
   keyTimes="0;0.1;1"
   dur="36000s"
   begin="25200s"
   repeatCount="indefinite"
   class="animate29-45" /></text>   
    <text
       sodipodi:linespacing="125%"
       xml:space="preserve"
       style="font-size:48px;font-style:normal;font-weight:normal;line-height:125%;letter-spacing:0px;word-spacing:0px;fill:#000000;fill-opacity:1;stroke:none;font-family:Sans;opacity:0;"
       x="678.31244"
       y="451.34442"
       class="h2">8     <animate
   attributeType="CSS"
   attributeName="opacity"
   calcMode="discrete"
   values="1;0;0"
   keyTimes="0;0.1;1"
   dur="36000s"
   begin="28800s"
   repeatCount="indefinite"
   class="animate29-45" /></text>   
    <text
       sodipodi:linespacing="125%"
       xml:space="preserve"
       style="font-size:48px;font-style:normal;font-weight:normal;line-height:125%;letter-spacing:0px;word-spacing:0px;fill:#000000;fill-opacity:1;stroke:none;font-family:Sans;opacity:0;"
       x="678.31244"
       y="451.34442"
       class="h2">9     <animate
   attributeType="CSS"
   attributeName="opacity"
   calcMode="discrete"
   values="1;0;0"
   keyTimes="0;0.1;1"
   dur="36000s"
   begin="32400s"
   repeatCount="indefinite"
   class="animate29-45" /></text>
   
   
   
   
   
   
   
   
   
   
   
   
   
   
   
   
   

   
  
   
   
   
  
   
   
   

    <text
       sodipodi:linespacing="125%"
       xml:space="preserve"
       style="font-size:48px;font-style:normal;font-weight:normal;line-height:125%;letter-spacing:0px;word-spacing:0px;fill:#000000;fill-opacity:1;stroke:none;font-family:Sans;opacity:0;"
       x="757.78729"
       y="448.28375"
       class="m1">0     <animate
   attributeType="CSS"
   attributeName="opacity"
   calcMode="discrete"
   values="1;0;0"
   keyTimes="0;0.166667;1"
   dur="3600s"
   begin="0s"
   repeatCount="indefinite"
   class="animate29-45" /></text>   
    <text
       sodipodi:linespacing="125%"
       xml:space="preserve"
       style="font-size:48px;font-style:normal;font-weight:normal;line-height:125%;letter-spacing:0px;word-spacing:0px;fill:#000000;fill-opacity:1;stroke:none;font-family:Sans;opacity:0;"
       x="757.78729"
       y="448.28375"
       class="m1">1     <animate
   attributeType="CSS"
   attributeName="opacity"
   calcMode="discrete"
   values="1;0;0"
   keyTimes="0;0.166667;1"
   dur="3600s"
   begin="600s"
   repeatCount="indefinite"
   class="animate29-45" /></text>   
    <text
       sodipodi:linespacing="125%"
       xml:space="preserve"
       style="font-size:48px;font-style:normal;font-weight:normal;line-height:125%;letter-spacing:0px;word-spacing:0px;fill:#000000;fill-opacity:1;stroke:none;font-family:Sans;opacity:0;"
       x="757.78729"
       y="448.28375"
       class="m1">2     <animate
   attributeType="CSS"
   attributeName="opacity"
   calcMode="discrete"
   values="1;0;0"
   keyTimes="0;0.166667;1"
   dur="3600s"
   begin="1200s"
   repeatCount="indefinite"
   class="animate29-45" /></text>   
    <text
       sodipodi:linespacing="125%"
       xml:space="preserve"
       style="font-size:48px;font-style:normal;font-weight:normal;line-height:125%;letter-spacing:0px;word-spacing:0px;fill:#000000;fill-opacity:1;stroke:none;font-family:Sans;opacity:0;"
       x="757.78729"
       y="448.28375"
       class="m1">3     <animate
   attributeType="CSS"
   attributeName="opacity"
   calcMode="discrete"
   values="1;0;0"
   keyTimes="0;0.166667;1"
   dur="3600s"
   begin="1800s"
   repeatCount="indefinite"
   class="animate29-45" /></text>   
    <text
       sodipodi:linespacing="125%"
       xml:space="preserve"
       style="font-size:48px;font-style:normal;font-weight:normal;line-height:125%;letter-spacing:0px;word-spacing:0px;fill:#000000;fill-opacity:1;stroke:none;font-family:Sans;opacity:0;"
       x="757.78729"
       y="448.28375"
       class="m1">4     <animate
   attributeType="CSS"
   attributeName="opacity"
   calcMode="discrete"
   values="1;0;0"
   keyTimes="0;0.166667;1"
   dur="3600s"
   begin="2400s"
   repeatCount="indefinite"
   class="animate29-45" /></text>   
    <text
       sodipodi:linespacing="125%"
       xml:space="preserve"
       style="font-size:48px;font-style:normal;font-weight:normal;line-height:125%;letter-spacing:0px;word-spacing:0px;fill:#000000;fill-opacity:1;stroke:none;font-family:Sans;opacity:0;"
       x="757.78729"
       y="448.28375"
       class="m1">5     <animate
   attributeType="CSS"
   attributeName="opacity"
   calcMode="discrete"
   values="1;0;0"
   keyTimes="0;0.166667;1"
   dur="3600s"
   begin="3000s"
   repeatCount="indefinite"
   class="animate29-45" /></text>   
  
   
   
   
   
   
   
   
   
   
   
   
   
   
   
    <text
       sodipodi:linespacing="125%"
       xml:space="preserve"
       style="font-size:48px;font-style:normal;font-weight:normal;line-height:125%;letter-spacing:0px;word-spacing:0px;fill:#000000;fill-opacity:1;stroke:none;font-family:Sans;opacity:0;"
       x="784.01953"
       y="447.05151"
       class="m2">0     <animate
   attributeType="CSS"
   attributeName="opacity"
   calcMode="discrete"
   values="1;0;0"
   keyTimes="0;0.1;1"
   dur="600s"
   begin="0s"
   repeatCount="indefinite"
   class="animate29-45" /></text>   
    <text
       sodipodi:linespacing="125%"
       xml:space="preserve"
       style="font-size:48px;font-style:normal;font-weight:normal;line-height:125%;letter-spacing:0px;word-spacing:0px;fill:#000000;fill-opacity:1;stroke:none;font-family:Sans;opacity:0;"
       x="784.01953"
       y="447.05151"
       class="m2">1     <animate
   attributeType="CSS"
   attributeName="opacity"
   calcMode="discrete"
   values="1;0;0"
   keyTimes="0;0.1;1"
   dur="600s"
   begin="60s"
   repeatCount="indefinite"
   class="animate29-45" /></text>   
    <text
       sodipodi:linespacing="125%"
       xml:space="preserve"
       style="font-size:48px;font-style:normal;font-weight:normal;line-height:125%;letter-spacing:0px;word-spacing:0px;fill:#000000;fill-opacity:1;stroke:none;font-family:Sans;opacity:0;"
       x="784.01953"
       y="447.05151"
       class="m2">2     <animate
   attributeType="CSS"
   attributeName="opacity"
   calcMode="discrete"
   values="1;0;0"
   keyTimes="0;0.1;1"
   dur="600s"
   begin="120s"
   repeatCount="indefinite"
   class="animate29-45" /></text>   
    <text
       sodipodi:linespacing="125%"
       xml:space="preserve"
       style="font-size:48px;font-style:normal;font-weight:normal;line-height:125%;letter-spacing:0px;word-spacing:0px;fill:#000000;fill-opacity:1;stroke:none;font-family:Sans;opacity:0;"
       x="784.01953"
       y="447.05151"
       class="m2">3     <animate
   attributeType="CSS"
   attributeName="opacity"
   calcMode="discrete"
   values="1;0;0"
   keyTimes="0;0.1;1"
   dur="600s"
   begin="180s"
   repeatCount="indefinite"
   class="animate29-45" /></text>   
    <text
       sodipodi:linespacing="125%"
       xml:space="preserve"
       style="font-size:48px;font-style:normal;font-weight:normal;line-height:125%;letter-spacing:0px;word-spacing:0px;fill:#000000;fill-opacity:1;stroke:none;font-family:Sans;opacity:0;"
       x="784.01953"
       y="447.05151"
       class="m2">4     <animate
   attributeType="CSS"
   attributeName="opacity"
   calcMode="discrete"
   values="1;0;0"
   keyTimes="0;0.1;1"
   dur="600s"
   begin="240s"
   repeatCount="indefinite"
   class="animate29-45" /></text>   
    <text
       sodipodi:linespacing="125%"
       xml:space="preserve"
       style="font-size:48px;font-style:normal;font-weight:normal;line-height:125%;letter-spacing:0px;word-spacing:0px;fill:#000000;fill-opacity:1;stroke:none;font-family:Sans;opacity:0;"
       x="784.01953"
       y="447.05151"
       class="m2">5     <animate
   attributeType="CSS"
   attributeName="opacity"
   calcMode="discrete"
   values="1;0;0"
   keyTimes="0;0.1;1"
   dur="600s"
   begin="300s"
   repeatCount="indefinite"
   class="animate29-45" /></text>   
    <text
       sodipodi:linespacing="125%"
       xml:space="preserve"
       style="font-size:48px;font-style:normal;font-weight:normal;line-height:125%;letter-spacing:0px;word-spacing:0px;fill:#000000;fill-opacity:1;stroke:none;font-family:Sans;opacity:0;"
       x="784.01953"
       y="447.05151"
       class="m2">6     <animate
   attributeType="CSS"
   attributeName="opacity"
   calcMode="discrete"
   values="1;0;0"
   keyTimes="0;0.1;1"
   dur="600s"
   begin="360s"
   repeatCount="indefinite"
   class="animate29-45" /></text>   
    <text
       sodipodi:linespacing="125%"
       xml:space="preserve"
       style="font-size:48px;font-style:normal;font-weight:normal;line-height:125%;letter-spacing:0px;word-spacing:0px;fill:#000000;fill-opacity:1;stroke:none;font-family:Sans;opacity:0;"
       x="784.01953"
       y="447.05151"
       class="m2">7     <animate
   attributeType="CSS"
   attributeName="opacity"
   calcMode="discrete"
   values="1;0;0"
   keyTimes="0;0.1;1"
   dur="600s"
   begin="420s"
   repeatCount="indefinite"
   class="animate29-45" /></text>   
    <text
       sodipodi:linespacing="125%"
       xml:space="preserve"
       style="font-size:48px;font-style:normal;font-weight:normal;line-height:125%;letter-spacing:0px;word-spacing:0px;fill:#000000;fill-opacity:1;stroke:none;font-family:Sans;opacity:0;"
       x="784.01953"
       y="447.05151"
       class="m2">8     <animate
   attributeType="CSS"
   attributeName="opacity"
   calcMode="discrete"
   values="1;0;0"
   keyTimes="0;0.1;1"
   dur="600s"
   begin="480s"
   repeatCount="indefinite"
   class="animate29-45" /></text>   
    <text
       sodipodi:linespacing="125%"
       xml:space="preserve"
       style="font-size:48px;font-style:normal;font-weight:normal;line-height:125%;letter-spacing:0px;word-spacing:0px;fill:#000000;fill-opacity:1;stroke:none;font-family:Sans;opacity:0;"
       x="784.01953"
       y="447.05151"
       class="m2">9     <animate
   attributeType="CSS"
   attributeName="opacity"
   calcMode="discrete"
   values="1;0;0"
   keyTimes="0;0.1;1"
   dur="600s"
   begin="540s"
   repeatCount="indefinite"
   class="animate29-45" /></text>
   
   
   
   
   
   
   
   
   
   
   
   
   
   
   
   
   
   
   
   
   
   
   
   
   
   
   
   
   
   
   
   
   
   
   
   
   

    <text
       sodipodi:linespacing="125%"
       xml:space="preserve"
       style="font-size:48px;font-style:normal;font-weight:normal;line-height:125%;letter-spacing:0px;word-spacing:0px;fill:#000000;fill-opacity:1;stroke:none;font-family:Sans;opacity:0;"
       x="906.09064"
       y="451.17282"
       class="s1">0     <animate
   attributeType="CSS"
   attributeName="opacity"
   calcMode="discrete"
   values="1;0;0"
   keyTimes="0;0.166667;1"
   dur="60s"
   begin="0s"
   repeatCount="indefinite"
   class="animate29-45" /></text>   
    <text
       sodipodi:linespacing="125%"
       xml:space="preserve"
       style="font-size:48px;font-style:normal;font-weight:normal;line-height:125%;letter-spacing:0px;word-spacing:0px;fill:#000000;fill-opacity:1;stroke:none;font-family:Sans;opacity:0;"
       x="906.09064"
       y="451.17282"
       class="s1">1     <animate
   attributeType="CSS"
   attributeName="opacity"
   calcMode="discrete"
   values="1;0;0"
   keyTimes="0;0.166667;1"
   dur="60s"
   begin="10s"
   repeatCount="indefinite"
   class="animate29-45" /></text>   
    <text
       sodipodi:linespacing="125%"
       xml:space="preserve"
       style="font-size:48px;font-style:normal;font-weight:normal;line-height:125%;letter-spacing:0px;word-spacing:0px;fill:#000000;fill-opacity:1;stroke:none;font-family:Sans;opacity:0;"
       x="906.09064"
       y="451.17282"
       class="s1">2     <animate
   attributeType="CSS"
   attributeName="opacity"
   calcMode="discrete"
   values="1;0;0"
   keyTimes="0;0.166667;1"
   dur="60s"
   begin="20s"
   repeatCount="indefinite"
   class="animate29-45" /></text>   
    <text
       sodipodi:linespacing="125%"
       xml:space="preserve"
       style="font-size:48px;font-style:normal;font-weight:normal;line-height:125%;letter-spacing:0px;word-spacing:0px;fill:#000000;fill-opacity:1;stroke:none;font-family:Sans;opacity:0;"
       x="906.09064"
       y="451.17282"
       class="s1">3     <animate
   attributeType="CSS"
   attributeName="opacity"
   calcMode="discrete"
   values="1;0;0"
   keyTimes="0;0.166667;1"
   dur="60s"
   begin="30s"
   repeatCount="indefinite"
   class="animate29-45" /></text>   
    <text
       sodipodi:linespacing="125%"
       xml:space="preserve"
       style="font-size:48px;font-style:normal;font-weight:normal;line-height:125%;letter-spacing:0px;word-spacing:0px;fill:#000000;fill-opacity:1;stroke:none;font-family:Sans;opacity:0;"
       x="906.09064"
       y="451.17282"
       class="s1">4     <animate
   attributeType="CSS"
   attributeName="opacity"
   calcMode="discrete"
   values="1;0;0"
   keyTimes="0;0.166667;1"
   dur="60s"
   begin="40s"
   repeatCount="indefinite"
   class="animate29-45" /></text>   
    <text
       sodipodi:linespacing="125%"
       xml:space="preserve"
       style="font-size:48px;font-style:normal;font-weight:normal;line-height:125%;letter-spacing:0px;word-spacing:0px;fill:#000000;fill-opacity:1;stroke:none;font-family:Sans;opacity:0;"
       x="906.09064"
       y="451.17282"
       class="s1">5     <animate
   attributeType="CSS"
   attributeName="opacity"
   calcMode="discrete"
   values="1;0;0"
   keyTimes="0;0.166667;1"
   dur="60s"
   begin="50s"
   repeatCount="indefinite"
   class="animate29-45" /></text>   
  
   
   
   
   
   
   
   
   
   
   
   
   
   
   
    <text
       sodipodi:linespacing="125%"
       xml:space="preserve"
       style="font-size:48px;font-style:normal;font-weight:normal;line-height:125%;letter-spacing:0px;word-spacing:0px;fill:#000000;fill-opacity:1;stroke:none;font-family:Sans;opacity:0;"
       x="932.14087"
       y="451.93021"
       class="s2">0     <animate
   attributeType="CSS"
   attributeName="opacity"
   calcMode="discrete"
   values="1;0;0"
   keyTimes="0;0.1;1"
   dur="10s"
   begin="0s"
   repeatCount="indefinite"
   class="animate29-45" /></text>   
    <text
       sodipodi:linespacing="125%"
       xml:space="preserve"
       style="font-size:48px;font-style:normal;font-weight:normal;line-height:125%;letter-spacing:0px;word-spacing:0px;fill:#000000;fill-opacity:1;stroke:none;font-family:Sans;opacity:0;"
       x="932.14087"
       y="451.93021"
       class="s2">1     <animate
   attributeType="CSS"
   attributeName="opacity"
   calcMode="discrete"
   values="1;0;0"
   keyTimes="0;0.1;1"
   dur="10s"
   begin="1s"
   repeatCount="indefinite"
   class="animate29-45" /></text>   
    <text
       sodipodi:linespacing="125%"
       xml:space="preserve"
       style="font-size:48px;font-style:normal;font-weight:normal;line-height:125%;letter-spacing:0px;word-spacing:0px;fill:#000000;fill-opacity:1;stroke:none;font-family:Sans;opacity:0;"
       x="932.14087"
       y="451.93021"
       class="s2">2     <animate
   attributeType="CSS"
   attributeName="opacity"
   calcMode="discrete"
   values="1;0;0"
   keyTimes="0;0.1;1"
   dur="10s"
   begin="2s"
   repeatCount="indefinite"
   class="animate29-45" /></text>   
    <text
       sodipodi:linespacing="125%"
       xml:space="preserve"
       style="font-size:48px;font-style:normal;font-weight:normal;line-height:125%;letter-spacing:0px;word-spacing:0px;fill:#000000;fill-opacity:1;stroke:none;font-family:Sans;opacity:0;"
       x="932.14087"
       y="451.93021"
       class="s2">3     <animate
   attributeType="CSS"
   attributeName="opacity"
   calcMode="discrete"
   values="1;0;0"
   keyTimes="0;0.1;1"
   dur="10s"
   begin="3s"
   repeatCount="indefinite"
   class="animate29-45" /></text>   
    <text
       sodipodi:linespacing="125%"
       xml:space="preserve"
       style="font-size:48px;font-style:normal;font-weight:normal;line-height:125%;letter-spacing:0px;word-spacing:0px;fill:#000000;fill-opacity:1;stroke:none;font-family:Sans;opacity:0;"
       x="932.14087"
       y="451.93021"
       class="s2">4     <animate
   attributeType="CSS"
   attributeName="opacity"
   calcMode="discrete"
   values="1;0;0"
   keyTimes="0;0.1;1"
   dur="10s"
   begin="4s"
   repeatCount="indefinite"
   class="animate29-45" /></text>   
    <text
       sodipodi:linespacing="125%"
       xml:space="preserve"
       style="font-size:48px;font-style:normal;font-weight:normal;line-height:125%;letter-spacing:0px;word-spacing:0px;fill:#000000;fill-opacity:1;stroke:none;font-family:Sans;opacity:0;"
       x="932.14087"
       y="451.93021"
       class="s2">5     <animate
   attributeType="CSS"
   attributeName="opacity"
   calcMode="discrete"
   values="1;0;0"
   keyTimes="0;0.1;1"
   dur="10s"
   begin="5s"
   repeatCount="indefinite"
   class="animate29-45" /></text>   
    <text
       sodipodi:linespacing="125%"
       xml:space="preserve"
       style="font-size:48px;font-style:normal;font-weight:normal;line-height:125%;letter-spacing:0px;word-spacing:0px;fill:#000000;fill-opacity:1;stroke:none;font-family:Sans;opacity:0;"
       x="932.14087"
       y="451.93021"
       class="s2">6     <animate
   attributeType="CSS"
   attributeName="opacity"
   calcMode="discrete"
   values="1;0;0"
   keyTimes="0;0.1;1"
   dur="10s"
   begin="6s"
   repeatCount="indefinite"
   class="animate29-45" /></text>   
    <text
       sodipodi:linespacing="125%"
       xml:space="preserve"
       style="font-size:48px;font-style:normal;font-weight:normal;line-height:125%;letter-spacing:0px;word-spacing:0px;fill:#000000;fill-opacity:1;stroke:none;font-family:Sans;opacity:0;"
       x="932.14087"
       y="451.93021"
       class="s2">7     <animate
   attributeType="CSS"
   attributeName="opacity"
   calcMode="discrete"
   values="1;0;0"
   keyTimes="0;0.1;1"
   dur="10s"
   begin="7s"
   repeatCount="indefinite"
   class="animate29-45" /></text>   
    <text
       sodipodi:linespacing="125%"
       xml:space="preserve"
       style="font-size:48px;font-style:normal;font-weight:normal;line-height:125%;letter-spacing:0px;word-spacing:0px;fill:#000000;fill-opacity:1;stroke:none;font-family:Sans;opacity:0;"
       x="932.14087"
       y="451.93021"
       class="s2">8     <animate
   attributeType="CSS"
   attributeName="opacity"
   calcMode="discrete"
   values="1;0;0"
   keyTimes="0;0.1;1"
   dur="10s"
   begin="8s"
   repeatCount="indefinite"
   class="animate29-45" /></text>   
    <text
       sodipodi:linespacing="125%"
       xml:space="preserve"
       style="font-size:48px;font-style:normal;font-weight:normal;line-height:125%;letter-spacing:0px;word-spacing:0px;fill:#000000;fill-opacity:1;stroke:none;font-family:Sans;opacity:0;"
       x="932.14087"
       y="451.93021"
       class="s2">9     <animate
   attributeType="CSS"
   attributeName="opacity"
   calcMode="discrete"
   values="1;0;0"
   keyTimes="0;0.1;1"
   dur="10s"
   begin="9s"
   repeatCount="indefinite"
   class="animate29-45" /></text>
   
   
   
   
   
   
   
   
   
   
   
   
   
  </g>
  <g
     inkscape:groupmode="layer"
     id="layer4"
     inkscape:label="covClock"
     style="display:inline">
    <rect
       style="fill:#ffffff;fill-opacity:1;stroke:none"
       id="rect3944"
       width="1058"
       height="272"
       x="-3.5527137e-015"
       y="476.09448" />
    <rect
       style="fill:#ffffff;fill-opacity:1;stroke:none"
       id="rect3946"
       width="1064"
       height="394"
       x="0"
       y="-1.9055176" />
  </g>
  <g
     inkscape:label="Layer 1"
     inkscape:groupmode="layer"
     id="layer1"
     transform="translate(0,-308.26768)"
     style="display:inline">
    <path
       style="fill:none;stroke:#ffffff;stroke-width:1px;stroke-linecap:butt;stroke-linejoin:miter;stroke-opacity:1"
       d="m 70,708.36216 c 76.29636,6.14021 291.02367,-79.44109 822,-48"
       id="path3919"
       inkscape:connector-curvature="0"
       sodipodi:nodetypes="cc" />
    <path
       style="fill:none;stroke:#ffffff;stroke-width:1px;stroke-linecap:butt;stroke-linejoin:miter;stroke-opacity:1"
       d="M 76.100505,195.36656 C 169.70636,148.30574 332.82367,147.58481 458,132.09448"
       id="path3914"
       inkscape:connector-curvature="0"
       transform="translate(0,308.26768)"
       sodipodi:nodetypes="cc" />
    <path
       style="fill:none;stroke:#ffffff;stroke-width:1px;stroke-linecap:butt;stroke-linejoin:miter;stroke-opacity:1"
       d="m 158,759.36216 c 144.15316,18.14766 223.92952,62.18253 481.5,-3.5"
       id="path3892"
       inkscape:connector-curvature="0"
       sodipodi:nodetypes="cc" />
    <text
       xml:space="preserve"
       style="font-size:40px;font-style:normal;font-weight:normal;line-height:125%;letter-spacing:0px;word-spacing:0px;fill:#000000;fill-opacity:1;stroke:none;font-family:Sans"
       id="text3054"
       sodipodi:linespacing="125%"><textPath
         xlink:href="#path3892"
         id="textPath3894"><tspan
   id="tspan3056">Estimated time remaining:</tspan></textPath></text>
    <path
       style="font-size:medium;font-style:normal;font-variant:normal;font-weight:normal;font-stretch:normal;text-indent:0;text-align:start;text-decoration:none;line-height:normal;letter-spacing:normal;word-spacing:normal;text-transform:none;direction:ltr;block-progression:tb;writing-mode:lr-tb;text-anchor:start;baseline-shift:baseline;color:#000000;fill:#000000;fill-opacity:1;stroke:none;stroke-width:10;marker:none;visibility:visible;display:inline;overflow:visible;enable-background:accumulate;font-family:Sans;-inkscape-font-specification:Sans"
       d="m 15.220335,544.55163 c 11.39472,13.51057 17.981182,2.21598 16.029665,-9.1902 -9.949008,-58.14976 27.260033,-151.04182 44.48711,-156.04536 68.54879,-19.90975 399.6551,20.22442 708.10664,-33.11089 3.28466,-0.56796 3.37739,-10.35075 0.0625,-10 C 391.60761,377.71427 98.011051,313.67059 52.946429,342.28554 -12.769625,384.01365 9.5660682,503.09014 15.220335,544.55163 z"
       id="path3850"
       inkscape:connector-curvature="0"
       sodipodi:nodetypes="csssssc" />
    <path
       style="font-size:medium;font-style:normal;font-variant:normal;font-weight:normal;font-stretch:normal;text-indent:0;text-align:start;text-decoration:none;line-height:normal;letter-spacing:normal;word-spacing:normal;text-transform:none;direction:ltr;block-progression:tb;writing-mode:lr-tb;text-anchor:start;baseline-shift:baseline;color:#000000;fill:#000000;fill-opacity:1;stroke:none;stroke-width:10;marker:none;visibility:visible;display:inline;overflow:visible;enable-background:accumulate;font-family:Sans;-inkscape-font-specification:Sans"
       d="m 1035.7353,830.48958 c -11.3947,-13.51057 -17.9812,-2.21598 -16.0297,9.1902 9.949,58.14976 -27.26001,151.04182 -44.48709,156.04536 -68.54878,19.90976 -399.6551,-20.22442 -708.10664,33.11086 -3.28466,0.568 -3.37739,10.3508 -0.0625,10 392.29864,-41.50906 685.8952,22.5346 730.95982,-6.0803 65.71601,-41.72814 43.38041,-160.80463 37.72611,-202.26612 z"
       id="path3850-3"
       inkscape:connector-curvature="0"
       sodipodi:nodetypes="csssssc" />
    <path
       style="font-size:medium;font-style:normal;font-variant:normal;font-weight:normal;font-stretch:normal;text-indent:0;text-align:start;text-decoration:none;line-height:normal;letter-spacing:normal;word-spacing:normal;text-transform:none;direction:ltr;block-progression:tb;writing-mode:lr-tb;text-anchor:start;baseline-shift:baseline;color:#000000;fill:#000000;fill-opacity:1;stroke:none;stroke-width:10;marker:none;visibility:visible;display:inline;overflow:visible;enable-background:accumulate;font-family:Sans;-inkscape-font-specification:Sans"
       d="m 100.14134,753.6215 c -3.085458,-1.26412 -4.097008,2.26432 -1.249998,4 188.113258,114.68351 716.228768,23.50455 877.812498,29.21875 6.85449,0.2424 6.9214,-9.23012 0.25,-10 C 572.86446,730.20831 437.53841,891.85426 100.14134,753.6215 z"
       id="path3884"
       inkscape:connector-curvature="0"
       sodipodi:nodetypes="sssss" />
    <text
       xml:space="preserve"
       style="font-size:62.08333588px;font-style:normal;font-weight:normal;line-height:125%;letter-spacing:0px;word-spacing:0px;fill:#000000;fill-opacity:1;stroke:none;font-family:Sans"
       id="text3903"
       sodipodi:linespacing="125%"
       transform="translate(0,-6)"><textPath
         xlink:href="#path3914"
         id="textPath3916"
         style="font-size:72px">We're in!</textPath></text>
    <text
       xml:space="preserve"
       style="font-size:48px;font-style:normal;font-weight:normal;line-height:125%;letter-spacing:1.75000012px;word-spacing:0px;fill:#000000;fill-opacity:1;stroke:none;font-family:Sans"
       id="text3907"
       sodipodi:linespacing="125%"><textPath
         xlink:href="#path3897"
         id="textPath3911"><tspan
   id="tspan3909"
   style="font-size:48px;letter-spacing:1.75000012px">and eagerly waiting for LD to load ;)</tspan></textPath></text>
    <rect
       style="fill:url(#linearGradient3114);fill-opacity:1;stroke:none"
       id="loader"
       width="831.70099"
       height="107.454"
       x="118.94953"
       y="595.52551"
       inkscape:label="#rect3882" >
	   
		<animate attributeName="width" attributeType="XML"
		begin="0s" dur="20s" fill="freeze" from="0" to="831.70099"/>
	   
	</rect>
    <path
       style="font-size:medium;font-style:normal;font-variant:normal;font-weight:normal;font-stretch:normal;text-indent:0;text-align:start;text-decoration:none;line-height:normal;letter-spacing:normal;word-spacing:normal;text-transform:none;direction:ltr;block-progression:tb;writing-mode:lr-tb;text-anchor:start;baseline-shift:baseline;color:#000000;fill:#000000;fill-opacity:1;stroke:none;stroke-width:10;marker:none;visibility:visible;display:inline;overflow:visible;enable-background:accumulate;font-family:Sans;-inkscape-font-specification:Sans"
       d="m 1004.4911,258.41518 c -226.14114,83.96291 -694.34882,-45.58945 -888.82311,19.63954 -24.847967,8.33431 -16.878685,87.08559 -10.44925,111.88117 5.392,20.79462 20.76476,13.62577 24.08631,9.26763 310.41842,66.55037 597.96868,-32.21883 849.90477,4.01969 50.15188,7.21385 22.12588,-138.90382 -19.99107,-183.97321 -2.27547,-2.43498 -7.20084,-3.78024 -9.84375,-1.75 -45.84022,35.21371 32.88752,179.04072 -14.68462,172.78989 -250.90661,-32.96833 -544.85057,19.89794 -803.97163,0.0226 14.26046,-17.34644 -30.47472,-87.19611 0,-93.15625 189.30858,-37.0243 601.04603,91.96776 874.80355,-28.80357 3.047,-1.3442 2.0908,-11.09667 -1.0312,-9.93749 z"
       id="path3876"
       inkscape:connector-curvature="0"
       sodipodi:nodetypes="ssscsaascsss"
       transform="translate(0,308.26768)" />
    <text
       xml:space="preserve"
       style="font-size:40px;font-style:normal;font-weight:normal;line-height:125%;letter-spacing:0px;word-spacing:0px;fill:#000000;fill-opacity:1;stroke:none;font-family:Sans"
       id="text3921"
       sodipodi:linespacing="125%"
       transform="translate(0,308.26768)"><textPath
         xlink:href="#path3919"
         id="textPath3925"><tspan
   style="font-size:48px"
   id="tspan3923">Team Luminosity: RaoZ &amp; ervion</tspan></textPath></text>
    <path
       style="fill:none;stroke:#ffffff;stroke-width:1px;stroke-linecap:butt;stroke-linejoin:miter;stroke-opacity:1"
       d="m 78,576.36216 c 163.18405,-110.14594 642.66667,9.33333 922,-194"
       id="path3897"
       inkscape:connector-curvature="0"
       sodipodi:nodetypes="cc" />
  </g>
</svg>
